…
    ## $ year             <int> 1997, 1997, 1997, 1997, 1997, 1997, 1997, 1997, 1997, 1997, 1997, 1997, 1997, 1997, 1998, ...
    ## $ week             <int> 40, 41, 42, 43, 44, 45, 46, 47, 48, 49, 50, 51, 52, 53, 1, 2, 3, 4, 5, 6, 7, 8, 9, 10, 11,...
    ## $ weighted_ili     <dbl> 1.101480, 1.200070, 1.378760, 1.199200, 1.656180, 1.413260, 1.986800, 2.447490, 1.739010, ...
    ## $ unweighted_ili   <dbl> 1.216860, 1.280640, 1.239060, 1.144730, 1.261120, 1.282750, 1.445790, 1.647960, 1.675170, ...
    ## $ age_0_4          <dbl> 179, 199, 228, 188, 217, 178, 294, 288, 268, 299, 346, 348, 510, 579, 639, 690, 856, 824, ...
    ## $ age_25_49        <dbl> NA, NA, NA, NA, NA, NA, NA, NA, NA, NA, NA, NA, NA, NA, NA, NA, NA, NA, NA, NA, NA, NA, NA...
    ## $ age_25_64        <dbl> 157, 151, 153, 193, 162, 148, 240, 293, 206, 282, 268, 235, 404, 584, 759, 654, 679, 817, ...
    ## $ age_5_24         <dbl> 205, 242, 266, 236, 280, 281, 328, 456, 343, 415, 388, 362, 492, 576, 810, 1121, 1440, 160...
    ## $ age_50_64        <dbl> NA, NA, NA, NA, NA, NA, NA, NA, NA, NA, NA, NA, NA, NA, NA, NA, NA, NA, NA, NA, NA, NA, NA...
    ## $ age_65           <dbl> 29, 23, 34, 36, 41, 48, 70, 63, 69, 102, 81, 59, 113, 207, 207, 148, 151, 196, 233, 146, 1...
    ## $ ilitotal         <dbl> 570, 615, 681, 653, 700, 655, 932, 1100, 886, 1098, 1083, 1004, 1519, 1946, 2415, 2613, 31...
    ## $ num_of_providers <dbl> 192, 191, 219, 213, 213, 195, 248, 256, 252, 253, 242, 190, 251, 250, 254, 255, 245, 245, ...
    ## $ total_patients   <dbl> 46842, 48023, 54961, 57044, 55506, 51062, 64463, 66749, 52890, 67887, 61314, 47719, 48429,...
    ## $ week_start       <date> 1997-10-06, 1997-10-13, 1997-10-20, 1997-10-27, 1997-11-03, 1997-11-10, 1997-11-17, 1997-...
    ## # A tibble: 1,049 x 16
    ##    region_type   region  year  week weighted_ili unweighted_ili age_0_4 age_25_49 age_25_64 age_5_24 age_50_64 age_65
    ##          <chr>    <chr> <int> <int>        <dbl>          <dbl>   <dbl>     <dbl>     <dbl>    <dbl>     <dbl>  <dbl>
    ##  1    National National  1997    40      1.10148        1.21686     179        NA       157      205        NA     29
    ##  2    National National  1997    41      1.20007        1.28064     199        NA       151      242        NA     23
    ##  3    National National  1997    42      1.37876        1.23906     228        NA       153      266        NA     34
    ##  4    National National  1997    43      1.19920        1.14473     188        NA       193      236        NA     36
    ##  5    National National  1997    44      1.65618        1.26112     217        NA       162      280        NA     41
    ##  6    National National  1997    45      1.41326        1.28275     178        NA       148      281        NA     48
    ##  7    National National  1997    46      1.98680        1.44579     294        NA       240      328        NA     70
    ##  8    National National  1997    47      2.44749        1.64796     288        NA       293      456        NA     63
    ##  9    National National  1997    48      1.73901        1.67517     268        NA       206      343        NA     69
    ## 10    National National  1997    49      1.93919        1.61739     299        NA       282      415        NA    102
    ## # ... with 1,039 more rows, and 4 more variables: ilitotal <dbl>, num_of_providers <dbl>, total_patients <dbl>,
    ## #   week_start <date>
…
    ## $ year             <int> 1997, 1997, 1997, 1997, 1997, 1997, 1997, 1997, 1997, 1997, 1997, 1997, 1997, 1997, 1997, ...
    ## $ week             <int> 40, 40, 40, 40, 40, 40, 40, 40, 40, 40, 41, 41, 41, 41, 41, 41, 41, 41, 41, 41, 42, 42, 42...
    ## $ weighted_ili     <dbl> 0.498535, 0.374963, 1.354280, 0.400338, 1.229260, 1.018980, 0.871791, 0.516017, 1.807610, ...
    ## $ unweighted_ili   <dbl> 0.623848, 0.384615, 1.341720, 0.450010, 0.901266, 0.747384, 1.152860, 0.422654, 2.258780, ...
    ## $ age_0_4          <dbl> 15, 0, 6, 12, 31, 2, 0, 2, 80, 31, 14, 0, 4, 21, 36, 2, 0, 0, 103, 19, 35, 0, 3, 19, 66, 2...
    ## $ age_25_49        <dbl> NA, NA, NA, NA, NA, NA, NA, NA, NA, NA, NA, NA, NA, NA, NA, NA, NA, NA, NA, NA, NA, NA, NA...
    ## $ age_25_64        <dbl> 7, 3, 7, 23, 24, 1, 4, 0, 76, 12, 14, 2, 19, 7, 23, 2, 0, 1, 76, 7, 15, 0, 17, 15, 29, 2, ...
    ## $ age_5_24         <dbl> 22, 0, 15, 11, 30, 2, 18, 3, 74, 30, 29, 0, 16, 14, 41, 2, 13, 8, 84, 35, 35, 0, 24, 18, 7...
    ## $ age_50_64        <dbl> NA, NA, NA, NA, NA, NA, NA, NA, NA, NA, NA, NA, NA, NA, NA, NA, NA, NA, NA, NA, NA, NA, NA...
    ## $ age_65           <dbl> 0, 0, 4, 0, 4, 0, 5, 0, 13, 3, 0, 0, 3, 2, 4, 0, 2, 0, 11, 1, 0, 1, 2, 2, 16, 0, 2, 0, 9, ...
    ## $ ilitotal         <dbl> 44, 3, 32, 46, 89, 5, 27, 5, 243, 76, 57, 2, 42, 44, 104, 6, 15, 9, 274, 62, 85, 1, 46, 54...
    ## $ num_of_providers <dbl> 32, 7, 16, 29, 49, 4, 14, 5, 23, 13, 29, 7, 17, 31, 48, 4, 14, 6, 23, 12, 40, 7, 15, 33, 6...
    ## $ total_patients   <dbl> 7053, 780, 2385, 10222, 9875, 669, 2342, 1183, 10758, 1575, 6987, 872, 2740, 11310, 9618, ...
    ## $ week_start       <date> 1997-10-06, 1997-10-06, 1997-10-06, 1997-10-06, 1997-10-06, 1997-10-06, 1997-10-06, 1997-...
    ## # A tibble: 10,490 x 16
    ##    region_type    region  year  week weighted_ili unweighted_ili age_0_4 age_25_49 age_25_64 age_5_24 age_50_64 age_65
    ##          <chr>    <fctr> <int> <int>        <dbl>          <dbl>   <dbl>     <dbl>     <dbl>    <dbl>     <dbl>  <dbl>
    ##  1 HHS Regions  Region 1  1997    40     0.498535       0.623848      15        NA         7       22        NA      0
    ##  2 HHS Regions  Region 2  1997    40     0.374963       0.384615       0        NA         3        0        NA      0
    ##  3 HHS Regions  Region 3  1997    40     1.354280       1.341720       6        NA         7       15        NA      4
    ##  4 HHS Regions  Region 4  1997    40     0.400338       0.450010      12        NA        23       11        NA      0
    ##  5 HHS Regions  Region 5  1997    40     1.229260       0.901266      31        NA        24       30        NA      4
    ##  6 HHS Regions  Region 6  1997    40     1.018980       0.747384       2        NA         1        2        NA      0
    ##  7 HHS Regions  Region 7  1997    40     0.871791       1.152860       0        NA         4       18        NA      5
    ##  8 HHS Regions  Region 8  1997    40     0.516017       0.422654       2        NA         0        3        NA      0
    ##  9 HHS Regions  Region 9  1997    40     1.807610       2.258780      80        NA        76       74        NA     13
    ## 10 HHS Regions Region 10  1997    40     4.743520       4.825400      31        NA        12       30        NA      3
    ## # ... with 10,480 more rows, and 4 more variables: ilitotal <dbl>, num_of_providers <dbl>, total_patients <dbl>,
    ## #   week_start <date>
…
    ## $ year             <int> 1997, 1997, 1997, 1997, 1997, 1997, 1997, 1997, 1997, 1997, 1997, 1997, 1997, 1997, 1997, ...
    ## $ week             <int> 40, 40, 40, 40, 40, 40, 40, 40, 40, 41, 41, 41, 41, 41, 41, 41, 41, 41, 42, 42, 42, 42, 42...
    ## $ weighted_ili     <dbl> 0.4985350, 0.8441440, 0.7924860, 1.7640500, 0.5026620, 0.0542283, 1.0189800, 2.2587800, 2....
    ## $ unweighted_ili   <dbl> 0.6238480, 1.3213800, 0.8187380, 1.2793900, 0.7233800, 0.0688705, 0.7473840, 2.2763300, 3....
    ## $ age_0_4          <dbl> 15, 4, 28, 3, 14, 0, 2, 87, 26, 14, 4, 36, 0, 21, 0, 2, 93, 29, 35, 3, 65, 1, 19, 0, 2, 84...
    ## $ age_25_49        <dbl> NA, NA, NA, NA, NA, NA, NA, NA, NA, NA, NA, NA, NA, NA, NA, NA, NA, NA, NA, NA, NA, NA, NA...
    ## $ age_25_64        <dbl> 7, 8, 20, 8, 22, 3, 1, 71, 17, 14, 13, 23, 1, 14, 1, 2, 72, 11, 15, 11, 27, 5, 21, 0, 2, 5...
    ## $ age_5_24         <dbl> 22, 12, 28, 20, 14, 0, 2, 71, 36, 29, 8, 39, 18, 22, 0, 2, 80, 44, 35, 16, 74, 9, 24, 2, 2...
    ## $ age_50_64        <dbl> NA, NA, NA, NA, NA, NA, NA, NA, NA, NA, NA, NA, NA, NA, NA, NA, NA, NA, NA, NA, NA, NA, NA...
    ## $ age_65           <dbl> 0, 4, 3, 6, 0, 0, 0, 15, 1, 0, 2, 2, 4, 3, 0, 0, 10, 2, 0, 3, 12, 6, 2, 0, 0, 9, 2, 0, 1, ...
    ## $ ilitotal         <dbl> 44, 28, 79, 37, 50, 3, 5, 244, 80, 57, 27, 100, 23, 60, 1, 6, 255, 86, 85, 33, 178, 21, 66...
    ## $ num_of_providers <dbl> 32, 13, 47, 17, 30, 9, 4, 16, 24, 29, 13, 46, 17, 32, 10, 4, 17, 23, 40, 12, 62, 16, 33, 1...
    ## $ total_patients   <dbl> 7053, 2119, 9649, 2892, 6912, 4356, 669, 10719, 2473, 6987, 2384, 9427, 2823, 7591, 4947, ...
    ## $ week_start       <date> 1997-10-06, 1997-10-06, 1997-10-06, 1997-10-06, 1997-10-06, 1997-10-06, 1997-10-06, 1997-...
    ## # A tibble: 9,441 x 16
    ##       region_type             region  year  week weighted_ili unweighted_ili age_0_4 age_25_49 age_25_64 age_5_24
    ##             <chr>              <chr> <int> <int>        <dbl>          <dbl>   <dbl>     <dbl>     <dbl>    <dbl>
    ##  1 Census Regions        New England  1997    40    0.4985350      0.6238480      15        NA         7       22
    ##  2 Census Regions       Mid-Atlantic  1997    40    0.8441440      1.3213800       4        NA         8       12
    ##  3 Census Regions East North Central  1997    40    0.7924860      0.8187380      28        NA        20       28
    ##  4 Census Regions West North Central  1997    40    1.7640500      1.2793900       3        NA         8       20
    ##  5 Census Regions     South Atlantic  1997    40    0.5026620      0.7233800      14        NA        22       14
    ##  6 Census Regions East South Central  1997    40    0.0542283      0.0688705       0        NA         3        0
    ##  7 Census Regions West South Central  1997    40    1.0189800      0.7473840       2        NA         1        2
    ##  8 Census Regions           Mountain  1997    40    2.2587800      2.2763300      87        NA        71       71
    ##  9 Census Regions            Pacific  1997    40    2.0488300      3.2349400      26        NA        17       36
    ## 10 Census Regions        New England  1997    41    0.6426690      0.8158010      14        NA        14       29
    ## # ... with 9,431 more rows, and 6 more variables: age_50_64 <dbl>, age_65 <dbl>, ilitotal <dbl>,
    ## #   num_of_providers <dbl>, total_patients <dbl>, week_start <date>
…
    ## $ year             <int> 2010, 2010, 2010, 2010, 2010, 2010, 2010, 2010, 2010, 2010, 2010, 2010, 2010, 2010, 2010, ...
    ## $ week             <int> 40, 40, 40, 40, 40, 40, 40, 40, 40, 40, 40, 40, 40, 40, 40, 40, 40, 40, 40, 40, 40, 40, 40...
    ## $ weighted_ili     <dbl> NA, NA, NA, NA, NA, NA, NA, NA, NA, NA, NA, NA, NA, NA, NA, NA, NA, NA, NA, NA, NA, NA, NA...
    ## $ unweighted_ili   <dbl> 2.1347700, 0.8751460, 0.6747210, 0.6960560, 1.9541200, 0.6606840, 0.0783085, 0.1001250, 2....
    ## $ age_0_4          <dbl> NA, NA, NA, NA, NA, NA, NA, NA, NA, NA, NA, NA, NA, NA, NA, NA, NA, NA, NA, NA, NA, NA, NA...
    ## $ age_25_49        <dbl> NA, NA, NA, NA, NA, NA, NA, NA, NA, NA, NA, NA, NA, NA, NA, NA, NA, NA, NA, NA, NA, NA, NA...
    ## $ age_25_64        <dbl> NA, NA, NA, NA, NA, NA, NA, NA, NA, NA, NA, NA, NA, NA, NA, NA, NA, NA, NA, NA, NA, NA, NA...
    ## $ age_5_24         <dbl> NA, NA, NA, NA, NA, NA, NA, NA, NA, NA, NA, NA, NA, NA, NA, NA, NA, NA, NA, NA, NA, NA, NA...
    ## $ age_50_64        <dbl> NA, NA, NA, NA, NA, NA, NA, NA, NA, NA, NA, NA, NA, NA, NA, NA, NA, NA, NA, NA, NA, NA, NA...
    ## $ age_65           <dbl> NA, NA, NA, NA, NA, NA, NA, NA, NA, NA, NA, NA, NA, NA, NA, NA, NA, NA, NA, NA, NA, NA, NA...
    ## $ ilitotal         <dbl> 249, 15, 172, 18, 632, 134, 3, 4, 73, NA, 647, 20, 19, 505, 65, 10, 39, 19, NA, 22, 117, 1...
    ## $ num_of_providers <dbl> 35, 7, 49, 15, 112, 14, 12, 13, 4, NA, 62, 18, 12, 74, 44, 6, 40, 14, NA, 30, 17, 56, 47, ...
    ## $ total_patients   <dbl> 11664, 1714, 25492, 2586, 32342, 20282, 3831, 3995, 2599, NA, 40314, 1943, 4579, 39390, 12...
    ## $ week_start       <date> 2010-10-04, 2010-10-04, 2010-10-04, 2010-10-04, 2010-10-04, 2010-10-04, 2010-10-04, 2010-...
    ## # A tibble: 19,772 x 16
    ##    region_type               region  year  week weighted_ili unweighted_ili age_0_4 age_25_49 age_25_64 age_5_24
    ##          <chr>                <chr> <int> <int>        <dbl>          <dbl>   <dbl>     <dbl>     <dbl>    <dbl>
    ##  1      States              Alabama  2010    40           NA      2.1347700      NA        NA        NA       NA
    ##  2      States               Alaska  2010    40           NA      0.8751460      NA        NA        NA       NA
    ##  3      States              Arizona  2010    40           NA      0.6747210      NA        NA        NA       NA
    ##  4      States             Arkansas  2010    40           NA      0.6960560      NA        NA        NA       NA
    ##  5      States           California  2010    40           NA      1.9541200      NA        NA        NA       NA
    ##  6      States             Colorado  2010    40           NA      0.6606840      NA        NA        NA       NA
    ##  7      States          Connecticut  2010    40           NA      0.0783085      NA        NA        NA       NA
    ##  8      States             Delaware  2010    40           NA      0.1001250      NA        NA        NA       NA
    ##  9      States District of Columbia  2010    40           NA      2.8087700      NA        NA        NA       NA
    ## 10      States              Florida  2010    40           NA             NA      NA        NA        NA       NA
    ## # ... with 19,762 more rows, and 6 more variables: age_50_64 <dbl>, age_65 <dbl>, ilitotal <dbl>,
    ## #   num_of_providers <dbl>, total_patients <dbl>, week_start <date>
…
### Retrieve weekly state-level ILI indicators per-state for a given season

``` r
ili_weekly_activity_indicators(2017)
```

    ## # A tibble: 270 x 8
    ##         statename                                                                                 url
    ##  *          <chr>                                                                               <chr>
    ##  1 Virgin Islands                                                                  http://doh.vi.gov/
    ##  2 Virgin Islands                                                                  http://doh.vi.gov/
    ##  3 Virgin Islands                                                                  http://doh.vi.gov/
    ##  4    Puerto Rico http://www.salud.gov.pr/Estadisticas-Registros-y-Publicaciones/Pages/Influenza.aspx
    ##  5 Virgin Islands                                                                  http://doh.vi.gov/
    ##  6    Puerto Rico http://www.salud.gov.pr/Estadisticas-Registros-y-Publicaciones/Pages/Influenza.aspx
    ##  7 Virgin Islands                                                                  http://doh.vi.gov/
    ##  8        Indiana                                                    http://www.in.gov/isdh/22104.htm
    ##  9           Iowa                                         http://idph.iowa.gov/influenza/surveillance
    ## 10         Kansas                                          http://www.kdheks.gov/flu/surveillance.htm
    ## # ... with 260 more rows, and 6 more variables: website <chr>, activity_level <dbl>, activity_level_label <chr>,
    ## #   weekend <date>, season <chr>, weeknumber <dbl>
…
### Pneumonia and Influenza Mortality Surveillance

``` r
(nat_pi <- pi_mortality("national"))
```

    ## # A tibble: 420 x 19
    ##    seasonid baseline threshold percent_pni percent_complete number_influenza number_pneumonia all_deaths total_pni
    ##       <chr>    <dbl>     <dbl>       <dbl>            <dbl>            <dbl>            <dbl>      <dbl>     <dbl>
    ##  1       57    0.058     0.061       0.056            0.858               12             2276      40834      2288
    ##  2       57    0.058     0.062       0.056            0.764               14             2025      36328      2039
    ##  3       57    0.059     0.063       0.058            0.678               17             1844      32279      1861
    ##  4       56    0.059     0.063       0.059            1.000               18             3022      51404      3040
    ##  5       56    0.060     0.063       0.061            1.000               11             3193      52130      3204
    ##  6       56    0.061     0.064       0.062            1.000                7             3178      51443      3185
    ##  7       56    0.062     0.065       0.061            1.000               17             3129      51865      3146
    ##  8       56    0.063     0.066       0.060            1.000               16             3099      51753      3115
    ##  9       56    0.064     0.067       0.061            1.000               19             3208      52541      3227
    ## 10       56    0.065     0.068       0.060            1.000                7             3192      53460      3199
    ## # ... with 410 more rows, and 10 more variables: weeknumber <chr>, geo_description <chr>, age_label <chr>,
    ## #   wk_start <date>, wk_end <date>, year_wk_num <int>, mmwrid <chr>, coverage_area <chr>, region_name <chr>,
    ## #   callout <chr>
…
``` r
(st_pi <- pi_mortality("state", years=2015))
```

    ## # A tibble: 2,704 x 19
    ##    seasonid baseline threshold percent_pni percent_complete number_influenza number_pneumonia all_deaths total_pni
    ##       <chr>    <dbl>     <dbl>       <dbl>            <dbl>            <dbl>            <dbl>      <dbl>     <dbl>
    ##  1       55       NA        NA       0.047            1.000                0               46        979        46
    ##  2       55       NA        NA       0.038            0.963                0               34        889        34
    ##  3       55       NA        NA       0.053            1.000                0               52        977        52
    ##  4       55       NA        NA       0.070            1.000                0               68        968        68
    ##  5       55       NA        NA       0.053            0.981                0               48        906        48
    ##  6       55       NA        NA       0.058            1.000                0               56        968        56
    ##  7       55       NA        NA       0.051            1.000                0               53       1041        53
    ##  8       55       NA        NA       0.062            1.000                1               63       1031        64
    ##  9       55       NA        NA       0.056            1.000                0               55        976        55
    ## 10       55       NA        NA       0.054            1.000                0               56       1045        56
    ## # ... with 2,694 more rows, and 10 more variables: weeknumber <chr>, geo_description <chr>, age_label <chr>,
    ## #   wk_start <date>, wk_end <date>, year_wk_num <int>, mmwrid <chr>, coverage_area <chr>, region_name <chr>,
    ## #   callout <chr>
…
