Retrieve Flu Season Data from the United States Centers for Disease Control and Prevention ('CDC') 'FluView' Portal • cdcfluview
…
## $ year             <int> 1997, 1997, 1997, 1997, 1997, 1997, 1997, 1997, 1997, 1997, 1997, 1997, 1997, 1997, 1998, 19…
## $ week             <int> 40, 41, 42, 43, 44, 45, 46, 47, 48, 49, 50, 51, 52, 53, 1, 2, 3, 4, 5, 6, 7, 8, 9, 10, 11, 1…
## $ weighted_ili     <dbl> 1.101480, 1.200070, 1.378760, 1.199200, 1.656180, 1.413260, 1.986800, 2.447490, 1.739010, 1.…
## $ unweighted_ili   <dbl> 1.216860, 1.280640, 1.239060, 1.144730, 1.261120, 1.282750, 1.445790, 1.647960, 1.675170, 1.…
## $ age_0_4          <dbl> 179, 199, 228, 188, 217, 178, 294, 288, 268, 299, 346, 348, 510, 579, 639, 690, 856, 824, 88…
## $ age_25_49        <dbl> NA, NA, NA, NA, NA, NA, NA, NA, NA, NA, NA, NA, NA, NA, NA, NA, NA, NA, NA, NA, NA, NA, NA, …
## $ age_25_64        <dbl> 157, 151, 153, 193, 162, 148, 240, 293, 206, 282, 268, 235, 404, 584, 759, 654, 679, 817, 76…
## $ age_5_24         <dbl> 205, 242, 266, 236, 280, 281, 328, 456, 343, 415, 388, 362, 492, 576, 810, 1121, 1440, 1600,…
## $ age_50_64        <dbl> NA, NA, NA, NA, NA, NA, NA, NA, NA, NA, NA, NA, NA, NA, NA, NA, NA, NA, NA, NA, NA, NA, NA, …
## $ age_65           <dbl> 29, 23, 34, 36, 41, 48, 70, 63, 69, 102, 81, 59, 113, 207, 207, 148, 151, 196, 233, 146, 119…
## $ ilitotal         <dbl> 570, 615, 681, 653, 700, 655, 932, 1100, 886, 1098, 1083, 1004, 1519, 1946, 2415, 2613, 3126…
## $ num_of_providers <dbl> 192, 191, 219, 213, 213, 195, 248, 256, 252, 253, 242, 190, 251, 250, 254, 255, 245, 245, 23…
## $ total_patients   <dbl> 46842, 48023, 54961, 57044, 55506, 51062, 64463, 66749, 52890, 67887, 61314, 47719, 48429, 5…
## $ week_start       <date> 1997-09-28, 1997-10-05, 1997-10-12, 1997-10-19, 1997-10-26, 1997-11-02, 1997-11-09, 1997-11…
## # A tibble: 1,111 x 16
##    region_type region  year  week weighted_ili unweighted_ili age_0_4 age_25_49 age_25_64 age_5_24 age_50_64 age_65
##    <chr>       <chr>  <int> <int>        <dbl>          <dbl>   <dbl>     <dbl>     <dbl>    <dbl>     <dbl>  <dbl>
##  1 National    Natio…  1997    40         1.10           1.22     179        NA       157      205        NA     29
##  2 National    Natio…  1997    41         1.20           1.28     199        NA       151      242        NA     23
##  3 National    Natio…  1997    42         1.38           1.24     228        NA       153      266        NA     34
##  4 National    Natio…  1997    43         1.20           1.14     188        NA       193      236        NA     36
##  5 National    Natio…  1997    44         1.66           1.26     217        NA       162      280        NA     41
##  6 National    Natio…  1997    45         1.41           1.28     178        NA       148      281        NA     48
##  7 National    Natio…  1997    46         1.99           1.45     294        NA       240      328        NA     70
##  8 National    Natio…  1997    47         2.45           1.65     288        NA       293      456        NA     63
##  9 National    Natio…  1997    48         1.74           1.68     268        NA       206      343        NA     69
## 10 National    Natio…  1997    49         1.94           1.62     299        NA       282      415        NA    102
## # … with 1,101 more rows, and 4 more variables: ilitotal <dbl>, num_of_providers <dbl>, total_patients <dbl>,
## #   week_start <date>
…
## $ year             <int> 1997, 1997, 1997, 1997, 1997, 1997, 1997, 1997, 1997, 1997, 1997, 1997, 1997, 1997, 1997, 19…
## $ week             <int> 40, 40, 40, 40, 40, 40, 40, 40, 40, 40, 41, 41, 41, 41, 41, 41, 41, 41, 41, 41, 42, 42, 42, …
## $ weighted_ili     <dbl> 0.498535, 0.374963, 1.354280, 0.400338, 1.229260, 1.018980, 0.871791, 0.516017, 1.807610, 4.…
## $ unweighted_ili   <dbl> 0.623848, 0.384615, 1.341720, 0.450010, 0.901266, 0.747384, 1.152860, 0.422654, 2.258780, 4.…
## $ age_0_4          <dbl> 15, 0, 6, 12, 31, 2, 0, 2, 80, 31, 14, 0, 4, 21, 36, 2, 0, 0, 103, 19, 35, 0, 3, 19, 66, 2, …
## $ age_25_49        <dbl> NA, NA, NA, NA, NA, NA, NA, NA, NA, NA, NA, NA, NA, NA, NA, NA, NA, NA, NA, NA, NA, NA, NA, …
## $ age_25_64        <dbl> 7, 3, 7, 23, 24, 1, 4, 0, 76, 12, 14, 2, 19, 7, 23, 2, 0, 1, 76, 7, 15, 0, 17, 15, 29, 2, 3,…
## $ age_5_24         <dbl> 22, 0, 15, 11, 30, 2, 18, 3, 74, 30, 29, 0, 16, 14, 41, 2, 13, 8, 84, 35, 35, 0, 24, 18, 75,…
## $ age_50_64        <dbl> NA, NA, NA, NA, NA, NA, NA, NA, NA, NA, NA, NA, NA, NA, NA, NA, NA, NA, NA, NA, NA, NA, NA, …
## $ age_65           <dbl> 0, 0, 4, 0, 4, 0, 5, 0, 13, 3, 0, 0, 3, 2, 4, 0, 2, 0, 11, 1, 0, 1, 2, 2, 16, 0, 2, 0, 9, 2,…
## $ ilitotal         <dbl> 44, 3, 32, 46, 89, 5, 27, 5, 243, 76, 57, 2, 42, 44, 104, 6, 15, 9, 274, 62, 85, 1, 46, 54, …
## $ num_of_providers <dbl> 32, 7, 16, 29, 49, 4, 14, 5, 23, 13, 29, 7, 17, 31, 48, 4, 14, 6, 23, 12, 40, 7, 15, 33, 64,…
## $ total_patients   <dbl> 7053, 780, 2385, 10222, 9875, 669, 2342, 1183, 10758, 1575, 6987, 872, 2740, 11310, 9618, 68…
## $ week_start       <date> 1997-09-28, 1997-09-28, 1997-09-28, 1997-09-28, 1997-09-28, 1997-09-28, 1997-09-28, 1997-09…
## # A tibble: 11,110 x 16
##    region_type region  year  week weighted_ili unweighted_ili age_0_4 age_25_49 age_25_64 age_5_24 age_50_64 age_65
##    <chr>       <fct>  <int> <int>        <dbl>          <dbl>   <dbl>     <dbl>     <dbl>    <dbl>     <dbl>  <dbl>
##  1 HHS Regions Regio…  1997    40        0.499          0.624      15        NA         7       22        NA      0
##  2 HHS Regions Regio…  1997    40        0.375          0.385       0        NA         3        0        NA      0
##  3 HHS Regions Regio…  1997    40        1.35           1.34        6        NA         7       15        NA      4
##  4 HHS Regions Regio…  1997    40        0.400          0.450      12        NA        23       11        NA      0
##  5 HHS Regions Regio…  1997    40        1.23           0.901      31        NA        24       30        NA      4
##  6 HHS Regions Regio…  1997    40        1.02           0.747       2        NA         1        2        NA      0
##  7 HHS Regions Regio…  1997    40        0.872          1.15        0        NA         4       18        NA      5
##  8 HHS Regions Regio…  1997    40        0.516          0.423       2        NA         0        3        NA      0
##  9 HHS Regions Regio…  1997    40        1.81           2.26       80        NA        76       74        NA     13
## 10 HHS Regions Regio…  1997    40        4.74           4.83       31        NA        12       30        NA      3
## # … with 11,100 more rows, and 4 more variables: ilitotal <dbl>, num_of_providers <dbl>, total_patients <dbl>,
## #   week_start <date>
…
## $ year             <int> 1997, 1997, 1997, 1997, 1997, 1997, 1997, 1997, 1997, 1997, 1997, 1997, 1997, 1997, 1997, 19…
## $ week             <int> 40, 40, 40, 40, 40, 40, 40, 40, 40, 41, 41, 41, 41, 41, 41, 41, 41, 41, 42, 42, 42, 42, 42, …
## $ weighted_ili     <dbl> 0.4985350, 0.8441440, 0.7924860, 1.7640500, 0.5026620, 0.0542283, 1.0189800, 2.2587800, 2.04…
## $ unweighted_ili   <dbl> 0.6238480, 1.3213800, 0.8187380, 1.2793900, 0.7233800, 0.0688705, 0.7473840, 2.2763300, 3.23…
## $ age_0_4          <dbl> 15, 4, 28, 3, 14, 0, 2, 87, 26, 14, 4, 36, 0, 21, 0, 2, 93, 29, 35, 3, 65, 1, 19, 0, 2, 84, …
## $ age_25_49        <dbl> NA, NA, NA, NA, NA, NA, NA, NA, NA, NA, NA, NA, NA, NA, NA, NA, NA, NA, NA, NA, NA, NA, NA, …
## $ age_25_64        <dbl> 7, 8, 20, 8, 22, 3, 1, 71, 17, 14, 13, 23, 1, 14, 1, 2, 72, 11, 15, 11, 27, 5, 21, 0, 2, 55,…
## $ age_5_24         <dbl> 22, 12, 28, 20, 14, 0, 2, 71, 36, 29, 8, 39, 18, 22, 0, 2, 80, 44, 35, 16, 74, 9, 24, 2, 2, …
## $ age_50_64        <dbl> NA, NA, NA, NA, NA, NA, NA, NA, NA, NA, NA, NA, NA, NA, NA, NA, NA, NA, NA, NA, NA, NA, NA, …
## $ age_65           <dbl> 0, 4, 3, 6, 0, 0, 0, 15, 1, 0, 2, 2, 4, 3, 0, 0, 10, 2, 0, 3, 12, 6, 2, 0, 0, 9, 2, 0, 1, 14…
## $ ilitotal         <dbl> 44, 28, 79, 37, 50, 3, 5, 244, 80, 57, 27, 100, 23, 60, 1, 6, 255, 86, 85, 33, 178, 21, 66, …
## $ num_of_providers <dbl> 32, 13, 47, 17, 30, 9, 4, 16, 24, 29, 13, 46, 17, 32, 10, 4, 17, 23, 40, 12, 62, 16, 33, 10,…
## $ total_patients   <dbl> 7053, 2119, 9649, 2892, 6912, 4356, 669, 10719, 2473, 6987, 2384, 9427, 2823, 7591, 4947, 68…
## $ week_start       <date> 1997-09-28, 1997-09-28, 1997-09-28, 1997-09-28, 1997-09-28, 1997-09-28, 1997-09-28, 1997-09…
## # A tibble: 9,999 x 16
##    region_type region  year  week weighted_ili unweighted_ili age_0_4 age_25_49 age_25_64 age_5_24 age_50_64 age_65
##    <chr>       <chr>  <int> <int>        <dbl>          <dbl>   <dbl>     <dbl>     <dbl>    <dbl>     <dbl>  <dbl>
##  1 Census Reg… New E…  1997    40       0.499          0.624       15        NA         7       22        NA      0
##  2 Census Reg… Mid-A…  1997    40       0.844          1.32         4        NA         8       12        NA      4
##  3 Census Reg… East …  1997    40       0.792          0.819       28        NA        20       28        NA      3
##  4 Census Reg… West …  1997    40       1.76           1.28         3        NA         8       20        NA      6
##  5 Census Reg… South…  1997    40       0.503          0.723       14        NA        22       14        NA      0
##  6 Census Reg… East …  1997    40       0.0542         0.0689       0        NA         3        0        NA      0
##  7 Census Reg… West …  1997    40       1.02           0.747        2        NA         1        2        NA      0
##  8 Census Reg… Mount…  1997    40       2.26           2.28        87        NA        71       71        NA     15
##  9 Census Reg… Pacif…  1997    40       2.05           3.23        26        NA        17       36        NA      1
## 10 Census Reg… New E…  1997    41       0.643          0.816       14        NA        14       29        NA      0
## # … with 9,989 more rows, and 4 more variables: ilitotal <dbl>, num_of_providers <dbl>, total_patients <dbl>,
## #   week_start <date>
…
## $ year             <int> 2010, 2010, 2010, 2010, 2010, 2010, 2010, 2010, 2010, 2010, 2010, 2010, 2010, 2010, 2010, 20…
## $ week             <int> 40, 40, 40, 40, 40, 40, 40, 40, 40, 40, 40, 40, 40, 40, 40, 40, 40, 40, 40, 40, 40, 40, 40, …
## $ weighted_ili     <dbl> NA, NA, NA, NA, NA, NA, NA, NA, NA, NA, NA, NA, NA, NA, NA, NA, NA, NA, NA, NA, NA, NA, NA, …
## $ unweighted_ili   <dbl> 2.1347700, 0.8751460, 0.6747210, 0.6960560, 1.9541200, 0.6606840, 0.0783085, 0.1001250, 2.80…
## $ age_0_4          <dbl> NA, NA, NA, NA, NA, NA, NA, NA, NA, NA, NA, NA, NA, NA, NA, NA, NA, NA, NA, NA, NA, NA, NA, …
## $ age_25_49        <dbl> NA, NA, NA, NA, NA, NA, NA, NA, NA, NA, NA, NA, NA, NA, NA, NA, NA, NA, NA, NA, NA, NA, NA, …
## $ age_25_64        <dbl> NA, NA, NA, NA, NA, NA, NA, NA, NA, NA, NA, NA, NA, NA, NA, NA, NA, NA, NA, NA, NA, NA, NA, …
## $ age_5_24         <dbl> NA, NA, NA, NA, NA, NA, NA, NA, NA, NA, NA, NA, NA, NA, NA, NA, NA, NA, NA, NA, NA, NA, NA, …
## $ age_50_64        <dbl> NA, NA, NA, NA, NA, NA, NA, NA, NA, NA, NA, NA, NA, NA, NA, NA, NA, NA, NA, NA, NA, NA, NA, …
## $ age_65           <dbl> NA, NA, NA, NA, NA, NA, NA, NA, NA, NA, NA, NA, NA, NA, NA, NA, NA, NA, NA, NA, NA, NA, NA, …
## $ ilitotal         <dbl> 249, 15, 172, 18, 632, 134, 3, 4, 73, NA, 647, 20, 19, 505, 65, 10, 39, 19, 391, 22, 117, 16…
## $ num_of_providers <dbl> 35, 7, 49, 15, 112, 14, 12, 13, 4, NA, 62, 18, 12, 74, 44, 6, 40, 14, 41, 30, 17, 56, 47, 17…
## $ total_patients   <dbl> 11664, 1714, 25492, 2586, 32342, 20282, 3831, 3995, 2599, NA, 40314, 1943, 4579, 39390, 1252…
## $ week_start       <date> 2010-10-03, 2010-10-03, 2010-10-03, 2010-10-03, 2010-10-03, 2010-10-03, 2010-10-03, 2010-10…
## # A tibble: 23,120 x 16
##    region_type region  year  week weighted_ili unweighted_ili age_0_4 age_25_49 age_25_64 age_5_24 age_50_64 age_65
##    <chr>       <chr>  <int> <int>        <dbl>          <dbl>   <dbl>     <dbl>     <dbl>    <dbl>     <dbl>  <dbl>
##  1 States      Alaba…  2010    40           NA         2.13        NA        NA        NA       NA        NA     NA
##  2 States      Alaska  2010    40           NA         0.875       NA        NA        NA       NA        NA     NA
##  3 States      Arizo…  2010    40           NA         0.675       NA        NA        NA       NA        NA     NA
##  4 States      Arkan…  2010    40           NA         0.696       NA        NA        NA       NA        NA     NA
##  5 States      Calif…  2010    40           NA         1.95        NA        NA        NA       NA        NA     NA
##  6 States      Color…  2010    40           NA         0.661       NA        NA        NA       NA        NA     NA
##  7 States      Conne…  2010    40           NA         0.0783      NA        NA        NA       NA        NA     NA
##  8 States      Delaw…  2010    40           NA         0.100       NA        NA        NA       NA        NA     NA
##  9 States      Distr…  2010    40           NA         2.81        NA        NA        NA       NA        NA     NA
## 10 States      Flori…  2010    40           NA        NA           NA        NA        NA       NA        NA     NA
## # … with 23,110 more rows, and 4 more variables: ilitotal <dbl>, num_of_providers <dbl>, total_patients <dbl>,
## #   week_start <date>
…
Retrieve weekly state-level ILI indicators per-state for a given season

ili_weekly_activity_indicators(2017)

## # A tibble: 2,805 x 8
##    statename    url                         website        activity_level activity_level_l… weekend    season weeknumber
##  * <chr>        <chr>                       <chr>                   <dbl> <chr>             <date>     <chr>       <dbl>
##  1 Alabama      http://adph.org/influenza/  Influenza Sur…              2 Minimal           2017-10-07 2017-…         40
##  2 Alaska       "http://dhss.alaska.gov/dp… Influenza Sur…              1 Minimal           2017-10-07 2017-…         40
##  3 Arizona      http://www.azdhs.gov/phs/o… Influenza & R…              2 Minimal           2017-10-07 2017-…         40
##  4 Arkansas     http://www.healthy.arkansa… Communicable …              1 Minimal           2017-10-07 2017-…         40
##  5 California   https://www.cdph.ca.gov/Pr… Influenza (Fl…              2 Minimal           2017-10-07 2017-…         40
##  6 Colorado     https://www.colorado.gov/p… Influenza Sur…              1 Minimal           2017-10-07 2017-…         40
##  7 Connecticut  http://www.portal.ct.gov/D… Flu Statistics              1 Minimal           2017-10-07 2017-…         40
##  8 Delaware     http://dhss.delaware.gov/d… Weekly Influe…              1 Minimal           2017-10-07 2017-…         40
##  9 District of… http://doh.dc.gov/page/inf… Influenza Inf…              2 Minimal           2017-10-07 2017-…         40
## 10 Florida      "http://www.floridahealth.… Weekly Influe…              1 Minimal           2017-10-07 2017-…         40
## # … with 2,795 more rows
…
Pneumonia and Influenza Mortality Surveillance

(nat_pi <- pi_mortality("national"))

## # A tibble: 483 x 19
##    seasonid baseline threshold percent_pni percent_complete number_influenza number_pneumonia all_deaths total_pni
##    <chr>       <dbl>     <dbl>       <dbl>            <dbl>            <dbl>            <dbl>      <dbl>     <dbl>
##  1 58         0.055     0.0580      0.0560                1               10             2880      51416      2890
##  2 58         0.0560    0.059       0.055                 1               12             2765      50411      2777
##  3 58         0.0560    0.06        0.0560                1               18             2802      50742      2820
##  4 58         0.057     0.061       0.057                 1               22             2895      51425      2917
##  5 58         0.0580    0.062       0.0560                1               23             2819      51136      2842
##  6 58         0.059     0.063       0.0560                1               28             2819      50945      2847
##  7 58         0.06      0.064       0.0580                1               25             2953      51618      2978
##  8 58         0.061     0.065       0.057                 1               31             2905      51109      2936
##  9 58         0.062     0.066       0.059                 1               34             2923      49720      2957
## 10 58         0.064     0.067       0.06                  1               48             2857      48381      2905
## # … with 473 more rows, and 10 more variables: weeknumber <chr>, geo_description <chr>, age_label <chr>,
## #   wk_start <date>, wk_end <date>, year_wk_num <int>, mmwrid <chr>, coverage_area <chr>, region_name <chr>,
## #   callout <chr>
…
(st_pi <- pi_mortality("state", years=2015))

## # A tibble: 2,704 x 19
##    seasonid baseline threshold percent_pni percent_complete number_influenza number_pneumonia all_deaths total_pni
##    <chr>       <dbl>     <dbl>       <dbl>            <dbl>            <dbl>            <dbl>      <dbl>     <dbl>
##  1 55             NA        NA      0.047             1                    0               46        979        46
##  2 55             NA        NA      0.038             0.963                0               34        889        34
##  3 55             NA        NA      0.053             1                    0               52        978        52
##  4 55             NA        NA      0.07              1                    0               68        968        68
##  5 55             NA        NA      0.053             0.981                0               48        906        48
##  6 55             NA        NA      0.0580            1                    0               56        968        56
##  7 55             NA        NA      0.051             1                    0               53       1041        53
##  8 55             NA        NA      0.062             1                    1               63       1031        64
##  9 55             NA        NA      0.0560            1                    0               55        976        55
## 10 55             NA        NA      0.054             1                    0               56       1045        56
## # … with 2,694 more rows, and 10 more variables: weeknumber <chr>, geo_description <chr>, age_label <chr>,
## #   wk_start <date>, wk_end <date>, year_wk_num <int>, mmwrid <chr>, coverage_area <chr>, region_name <chr>,
## #   callout <chr>
…
